module studentgit.kata.academy/SLK/jsonwebtoken

go 1.20

require (
	github.com/go-chi/chi/v5 v5.0.12
	github.com/go-chi/jwtauth/v5 v5.3.1
	github.com/joho/godotenv v1.5.1
	github.com/lestrrat-go/jwx/v2 v2.0.21
	github.com/swaggo/http-swagger v1.3.4
	github.com/swaggo/swag v1.16.3
	golang.org/x/crypto v0.22.0
)

require (
	github.com/KyleBanks/depth v1.2.1 // indirect
	github.com/decred/dcrd/dcrec/secp256k1/v4 v4.3.0 // indirect
	github.com/go-openapi/jsonpointer v0.21.0 // indirect
	github.com/go-openapi/jsonreference v0.21.0 // indirect
	github.com/go-openapi/spec v0.21.0 // indirect
	github.com/go-openapi/swag v0.23.0 // indirect
	github.com/goccy/go-json v0.10.2 // indirect
	github.com/josharian/intern v1.0.0 // indirect
	github.com/lestrrat-go/blackmagic v1.0.2 // indirect
	github.com/lestrrat-go/httpcc v1.0.1 // indirect
	github.com/lestrrat-go/httprc v1.0.5 // indirect
	github.com/lestrrat-go/iter v1.0.2 // indirect
	github.com/lestrrat-go/option v1.0.1 // indirect
	github.com/mailru/easyjson v0.7.7 // indirect
	github.com/segmentio/asm v1.2.0 // indirect
	github.com/swaggo/files v1.0.1 // indirect
	golang.org/x/net v0.24.0 // indirect
	golang.org/x/sys v0.19.0 // indirect
	golang.org/x/tools v0.20.0 // indirect
	gopkg.in/yaml.v3 v3.0.1 // indirect
)
